Retail Forecasting Project
…
## # A tsibble: 48 x 7 [1M]
## # Key:       State, Industry, .model [1]
##    State      Industry .model    Month     Turnover .mean                  `80%`
##    <chr>      <chr>    <chr>     <mth>       <dist> <dbl>                 <hilo>
##  1 New South~ Pharmac~ ets    2019 Jan sample[5000]  351. [339.2355, 362.2139]80
##  2 New South~ Pharmac~ ets    2019 Feb sample[5000]  340. [326.4931, 353.4332]80
##  3 New South~ Pharmac~ ets    2019 Mar sample[5000]  372. [355.7514, 387.9312]80
##  4 New South~ Pharmac~ ets    2019 Apr sample[5000]  363. [346.1825, 380.6590]80
##  5 New South~ Pharmac~ ets    2019 May sample[5000]  388. [367.9622, 407.6084]80
##  6 New South~ Pharmac~ ets    2019 Jun sample[5000]  376. [355.3350, 395.8695]80
##  7 New South~ Pharmac~ ets    2019 Jul sample[5000]  389. [366.2425, 411.7402]80
##  8 New South~ Pharmac~ ets    2019 Aug sample[5000]  401. [376.6807, 425.3858]80
##  9 New South~ Pharmac~ ets    2019 Sep sample[5000]  389. [363.1576, 414.2562]80
## 10 New South~ Pharmac~ ets    2019 Oct sample[5000]  395. [368.2185, 422.6858]80
## # ... with 38 more rows
…
## # A tsibble: 48 x 7 [1M]
## # Key:       State, Industry, .model [1]
##    State Industry .model    Month          Turnover .mean                  `80%`
##    <chr> <chr>    <chr>     <mth>            <dist> <dbl>                 <hilo>
##  1 New ~ Pharmac~ arima  2019 Jan   t(N(7, 0.0039))  357. [337.0879, 378.2525]80
##  2 New ~ Pharmac~ arima  2019 Feb t(N(6.9, 0.0057))  351. [326.4073, 375.3697]80
##  3 New ~ Pharmac~ arima  2019 Mar  t(N(7.1, 0.007))  381. [352.5945, 411.1265]80
##  4 New ~ Pharmac~ arima  2019 Apr   t(N(7, 0.0085))  375. [343.8743, 407.6055]80
##  5 New ~ Pharmac~ arima  2019 May t(N(7.1, 0.0097))  403. [367.5563, 440.2377]80
##  6 New ~ Pharmac~ arima  2019 Jun  t(N(7.1, 0.011))  394. [356.9511, 432.8406]80
##  7 New ~ Pharmac~ arima  2019 Jul  t(N(7.2, 0.012))  410. [369.8915, 452.3849]80
##  8 New ~ Pharmac~ arima  2019 Aug  t(N(7.2, 0.013))  429. [384.9947, 475.0844]80
##  9 New ~ Pharmac~ arima  2019 Sep  t(N(7.2, 0.014))  416. [371.6438, 462.2160]80
## 10 New ~ Pharmac~ arima  2019 Oct  t(N(7.2, 0.015))  429. [381.6287, 478.0965]80
## # ... with 38 more rows

Comparing with the ABS data

## # A tsibble: 481 x 13 [1D]
## # Key:       Industry [1]
##    table_no sheet_no table_title        date       Industry Turnover series_type
##    <chr>    <chr>    <chr>              <date>     <chr>       <dbl> <chr>      
##  1 8501011  Data1    TABLE 11. Retail ~ 1982-04-01 Turnove~     43   Original   
##  2 8501011  Data1    TABLE 11. Retail ~ 1982-05-01 Turnove~     45.3 Original   
##  3 8501011  Data1    TABLE 11. Retail ~ 1982-06-01 Turnove~     43.7 Original   
##  4 8501011  Data1    TABLE 11. Retail ~ 1982-07-01 Turnove~     46.5 Original   
##  5 8501011  Data1    TABLE 11. Retail ~ 1982-08-01 Turnove~     44.8 Original   
##  6 8501011  Data1    TABLE 11. Retail ~ 1982-09-01 Turnove~     43.9 Original   
##  7 8501011  Data1    TABLE 11. Retail ~ 1982-10-01 Turnove~     45.6 Original   
##  8 8501011  Data1    TABLE 11. Retail ~ 1982-11-01 Turnove~     45.3 Original   
##  9 8501011  Data1    TABLE 11. Retail ~ 1982-12-01 Turnove~     55   Original   
## 10 8501011  Data1    TABLE 11. Retail ~ 1983-01-01 Turnove~     47.4 Original   
## # ... with 471 more rows, and 6 more variables: data_type <chr>,
## #   collection_month <chr>, frequency <chr>, series_id <chr>, unit <chr>,
## #   Month <mth>
…
